<?xml version="1.0" encoding="UTF-8"?>
<svg width="18px" height="19px" viewBox="0 0 18 19" version="1.1" xmlns="http://www.w3.org/2000/svg" xmlns:xlink="http://www.w3.org/1999/xlink">
    <!-- Generator: Sketch 50.2 (55047) - http://www.bohemiancoding.com/sketch -->
    <title>color/grey-mid</title>
    <desc>Created with Sketch.</desc>
    <defs>
        <path d="M15,8.17041016 C13,5.82803955 12,4.1045695 12,3 C12,1.34314575 13.3431458,0 15,0 C16.6568542,0 18,1.34314575 18,3 C18,4.1045695 17,5.82803955 15,8.17041016 Z M15,4 C15.5522847,4 16,3.55228475 16,3 C16,2.44771525 15.5522847,2 15,2 C14.4477153,2 14,2.44771525 14,3 C14,3.55228475 14.4477153,4 15,4 Z M3,18.1704102 C1,15.8280396 0,14.1045695 0,13 C0,11.3431458 1.34314575,10 3,10 C4.65685425,10 6,11.3431458 6,13 C6,14.1045695 5,15.8280396 3,18.1704102 Z M3,14 C3.55228475,14 4,13.5522847 4,13 C4,12.4477153 3.55228475,12 3,12 C2.44771525,12 2,12.4477153 2,13 C2,13.5522847 2.44771525,14 3,14 Z M10,2 L10,4 L7.99991756,4 L7.99991756,2 L10,2 Z M7.00017885,2 L7.00017885,4 C6.50125162,4 6.12665713,4.15327549 5.84874293,4.43392123 L4.42763042,3.02664043 C5.08463992,2.3631734 5.97221007,2 7.00017885,2 Z M3.67211203,4.14868053 L5.50289604,4.95380777 C5.31976935,5.37022075 5.2605785,5.88306106 5.34005521,6.37935547 L3.36521717,6.69560652 C3.22625521,5.82785487 3.33037241,4.92576444 3.67211203,4.14868053 Z M3.77760586,7.98947257 L5.56530437,7.09273736 C5.7750095,7.51079783 6.08535742,7.79535242 6.47317942,7.92147546 L5.85464852,9.82342696 C4.93497637,9.52434171 4.21756138,8.86655179 3.77760586,7.98947257 Z M7.20559856,10 L7.20559856,8 L9.20563654,8 L9.20563654,10 L7.20559856,10 Z M10.205508,10 L10.205508,8 L11,8 C11.5339439,8 12.0354034,8.07491402 12.497195,8.22242755 L11.8886159,10.1275867 C11.6277768,10.044265 11.331476,10 11,10 L10.205508,10 Z M12.5025353,10.4419112 L13.7148254,8.85120297 C14.4587834,9.41817864 14.9542603,10.2267173 15.1468876,11.135006 L13.1904019,11.5499319 C13.0950571,11.100356 12.857191,10.7121968 12.5025353,10.4419112 Z M13.2154247,12.2802907 L15.1961656,12.5571758 C15.0685345,13.4702053 14.6395164,14.3119335 13.9579911,14.9330578 L12.6107989,13.4548584 C12.9399178,13.1549081 13.1510762,12.740618 13.2154247,12.2802907 Z M12.0830165,13.7944853 L12.884236,15.6269828 C12.3489995,15.8610033 11.7501748,15.9870258 11.0870818,15.999217 C10.8566595,15.9998693 10.7147446,16 10.4288192,16 L10.4288192,14 C10.7130101,14 10.8533001,13.9998708 11.065682,13.9993935 C11.4550038,13.9921629 11.7941331,13.9207932 12.0830165,13.7944853 Z M9.42887374,14 L9.42887374,16 L7.42880124,16 L7.42880124,14 L9.42887374,14 Z" id="path-1"></path>
    </defs>
    <g id="Symbols" stroke="none" stroke-width="1" fill="none" fill-rule="evenodd">
        <g id="icon/distance" transform="translate(-1.000000, -1.000000)">
            <g id="color/grey-mid" transform="translate(1.000000, 1.000000)">
                <mask id="mask-2" fill="white">
                    <use xlink:href="#path-1"></use>
                </mask>
                <use id="Mask" fill="#8A9199" xlink:href="#path-1"></use>
                <g mask="url(#mask-2)" fill="#8A9199" id="Rectangle-7">
                    <g transform="translate(-1.000000, -1.000000)">
                        <rect x="0" y="0" width="20" height="21"></rect>
                    </g>
                </g>
            </g>
        </g>
    </g>
</svg>