<?xml version="1.0" encoding="UTF-8"?>
<svg width="14px" height="20px" viewBox="0 0 14 20" version="1.1" xmlns="http://www.w3.org/2000/svg" xmlns:xlink="http://www.w3.org/1999/xlink">
    <!-- Generator: Sketch 50.2 (55047) - http://www.bohemiancoding.com/sketch -->
    <title>icon/ton</title>
    <desc>Created with Sketch.</desc>
    <defs></defs>
    <g id="icon/ton" stroke="none" stroke-width="1" fill="none" fill-rule="evenodd">
        <path d="M12.9808207,14.3299108 L11.7974827,7.028767 C11.6861961,6.34035179 11.1089151,5.83723248 10.4332672,5.83723248 L8.65532393,5.83723248 C8.86380283,5.46209167 8.98301753,5.02751061 8.98301753,4.56472576 C8.98301753,3.15059354 7.86927037,2 6.49976952,2 C5.13056231,2 4.01652152,3.15059354 4.01652152,4.56472576 C4.01652152,5.02751061 4.13573622,5.46209167 4.34421512,5.83723248 L2.5662718,5.83723248 C1.89033034,5.83723248 1.31334296,6.34095832 1.20205633,7.02937354 L0.0190119663,14.3314271 C-0.0482298207,14.745386 0.0648185984,15.1714756 0.327619469,15.4917252 C0.590713972,15.812278 0.976546758,16 1.38352107,16 L11.6171925,16 C12.0241668,16 12.4099996,15.812278 12.6730941,15.4917252 C12.9356013,15.1708691 13.0483561,14.7441729 12.9808207,14.3299108 Z M6.50006316,3.49419461 C7.07147153,3.49419461 7.53658502,3.97456893 7.53658502,4.56502903 C7.53658502,5.15548913 7.07147153,5.63556018 6.50006316,5.63556018 C5.92836115,5.63556018 5.46324765,5.15518586 5.46324765,4.56472576 C5.46324765,3.97426566 5.92836115,3.49419461 6.50006316,3.49419461 Z M4.00567627,8 C6.71795654,8 6.71795654,8 9.00384521,8 C9.59804534,8 9.98784554,8.34649163 10.1732458,9.0394749 L10.8334681,13.0008083 C10.9350899,13.6669361 10.6634115,14 10.0184326,14 C6.28149414,14 6.28149414,14 3.01593018,14 C2.33005778,14 2.0458495,13.6733893 2.16330533,13.020168 L2.83073302,9.01560191 C3.02100505,8.33853397 3.4126528,8 4.00567627,8 Z" id="Shape" fill="#8A9199" fill-rule="nonzero"></path>
    </g>
</svg>